%YAML 1.1
%TAG !u! tag:unity3d.com,2011:
--- !u!1 &4311087502239012622
GameObject:
  m_ObjectHideFlags: 0
  m_CorrespondingSourceObject: {fileID: 0}
  m_PrefabInstance: {fileID: 0}
  m_PrefabAsset: {fileID: 0}
  serializedVersion: 6
  m_Component:
  - component: {fileID: 626188087228840976}
  m_Layer: 14
  m_Name: Stand
  m_TagString: Untagged
  m_Icon: {fileID: 0}
  m_NavMeshLayer: 0
  m_StaticEditorFlags: 0
  m_IsActive: 1
--- !u!4 &626188087228840976
Transform:
  m_ObjectHideFlags: 0
  m_CorrespondingSourceObject: {fileID: 0}
  m_PrefabInstance: {fileID: 0}
  m_PrefabAsset: {fileID: 0}
  m_GameObject: {fileID: 4311087502239012622}
  m_LocalRotation: {x: -0, y: -1, z: -0, w: -0.00000008940697}
  m_LocalPosition: {x: -2.2, y: 0, z: -0.018}
  m_LocalScale: {x: 1, y: 1, z: 1}
  m_Children:
  - {fileID: 6524552411099900547}
  m_Father: {fileID: 0}
  m_RootOrder: 0
  m_LocalEulerAnglesHint: {x: 0, y: -179.99998, z: 0}
--- !u!1 &8512696179132410037
GameObject:
  m_ObjectHideFlags: 0
  m_CorrespondingSourceObject: {fileID: 0}
  m_PrefabInstance: {fileID: 0}
  m_PrefabAsset: {fileID: 0}
  serializedVersion: 6
  m_Component:
  - component: {fileID: 6524552411099900547}
  m_Layer: 0
  m_Name: model
  m_TagString: Untagged
  m_Icon: {fileID: 0}
  m_NavMeshLayer: 0
  m_StaticEditorFlags: 0
  m_IsActive: 1
--- !u!4 &6524552411099900547
Transform:
  m_ObjectHideFlags: 0
  m_CorrespondingSourceObject: {fileID: 0}
  m_PrefabInstance: {fileID: 0}
  m_PrefabAsset: {fileID: 0}
  m_GameObject: {fileID: 8512696179132410037}
  m_LocalRotation: {x: -0, y: 1, z: -0, w: -0.00000008940697}
  m_LocalPosition: {x: -0.24999987, y: 0.25, z: 0.050000064}
  m_LocalScale: {x: 1, y: 1, z: 1}
  m_Children:
  - {fileID: 4419659337929269627}
  m_Father: {fileID: 626188087228840976}
  m_RootOrder: 0
  m_LocalEulerAnglesHint: {x: 0, y: 0, z: 0}
--- !u!1001 &4419659337929407483
PrefabInstance:
  m_ObjectHideFlags: 0
  serializedVersion: 2
  m_Modification:
    m_TransformParent: {fileID: 6524552411099900547}
    m_Modifications:
    - target: {fileID: 100000, guid: 314ace0cde010964b908b4e0e1dc6050, type: 3}
      propertyPath: m_Name
      value: Stand_
      objectReference: {fileID: 0}
    - target: {fileID: 400000, guid: 314ace0cde010964b908b4e0e1dc6050, type: 3}
      propertyPath: m_LocalPosition.x
      value: 0.022
      objectReference: {fileID: 0}
    - target: {fileID: 400000, guid: 314ace0cde010964b908b4e0e1dc6050, type: 3}
      propertyPath: m_LocalPosition.y
      value: 0.037
      objectReference: {fileID: 0}
    - target: {fileID: 400000, guid: 314ace0cde010964b908b4e0e1dc6050, type: 3}
      propertyPath: m_LocalPosition.z
      value: 0.001
      objectReference: {fileID: 0}
    - target: {fileID: 400000, guid: 314ace0cde010964b908b4e0e1dc6050, type: 3}
      propertyPath: m_LocalRotation.x
      value: 0.000000081460335
      objectReference: {fileID: 0}
    - target: {fileID: 400000, guid: 314ace0cde010964b908b4e0e1dc6050, type: 3}
      propertyPath: m_LocalRotation.y
      value: 0
      objectReference: {fileID: 0}
    - target: {fileID: 400000, guid: 314ace0cde010964b908b4e0e1dc6050, type: 3}
      propertyPath: m_LocalRotation.z
      value: -0
      objectReference: {fileID: 0}
    - target: {fileID: 400000, guid: 314ace0cde010964b908b4e0e1dc6050, type: 3}
      propertyPath: m_LocalRotation.w
      value: 1
      objectReference: {fileID: 0}
    - target: {fileID: 400000, guid: 314ace0cde010964b908b4e0e1dc6050, type: 3}
      propertyPath: m_RootOrder
      value: 0
      objectReference: {fileID: 0}
    - target: {fileID: 400000, guid: 314ace0cde010964b908b4e0e1dc6050, type: 3}
      propertyPath: m_LocalEulerAnglesHint.x
      value: 0
      objectReference: {fileID: 0}
    - target: {fileID: 400000, guid: 314ace0cde010964b908b4e0e1dc6050, type: 3}
      propertyPath: m_LocalEulerAnglesHint.y
      value: 0
      objectReference: {fileID: 0}
    - target: {fileID: 400000, guid: 314ace0cde010964b908b4e0e1dc6050, type: 3}
      propertyPath: m_LocalEulerAnglesHint.z
      value: 0
      objectReference: {fileID: 0}
    m_RemovedComponents: []
  m_SourcePrefab: {fileID: 100100000, guid: 314ace0cde010964b908b4e0e1dc6050, type: 3}
--- !u!4 &4419659337929269627 stripped
Transform:
  m_CorrespondingSourceObject: {fileID: 400000, guid: 314ace0cde010964b908b4e0e1dc6050,
    type: 3}
  m_PrefabInstance: {fileID: 4419659337929407483}
  m_PrefabAsset: {fileID: 0}
