%YAML 1.1
%TAG !u! tag:unity3d.com,2011:
--- !u!687078895 &4343727234628468602
SpriteAtlas:
  m_ObjectHideFlags: 0
  m_CorrespondingSourceObject: {fileID: 0}
  m_PrefabInstance: {fileID: 0}
  m_PrefabAsset: {fileID: 0}
  m_Name: AtlasVentanaIO
  m_EditorData:
    serializedVersion: 2
    textureSettings:
      serializedVersion: 2
      anisoLevel: 1
      compressionQuality: 50
      maxTextureSize: 2048
      textureCompression: 0
      filterMode: 1
      generateMipMaps: 0
      readable: 0
      crunchedCompression: 0
      sRGB: 1
    platformSettings: []
    packingSettings:
      serializedVersion: 2
      padding: 4
      blockOffset: 1
      allowAlphaSplitting: 0
      enableRotation: 1
      enableTightPacking: 1
    variantMultiplier: 1
    packables:
    - {fileID: 21300000, guid: a57bb08e4df97bf41a38fdc5f216bc69, type: 3}
    - {fileID: 21300000, guid: 59f7769fbac3f7546b04ce2b99826159, type: 3}
    - {fileID: 21300000, guid: 997a1164fa3317e428f6819f63ed1f63, type: 3}
    - {fileID: 21300000, guid: e94b543f2a5d9284287bcf0480597a12, type: 3}
    - {fileID: 21300000, guid: 3601c0887ab9d254b89a9bfcc02169bc, type: 3}
    - {fileID: 21300000, guid: 00de647c67e5a81498d74ad6bb01b4f8, type: 3}
    totalSpriteSurfaceArea: 34085
    bindAsDefault: 1
  m_MasterAtlas: {fileID: 0}
  m_PackedSprites:
  - {fileID: 21300000, guid: 997a1164fa3317e428f6819f63ed1f63, type: 3}
  - {fileID: 21300000, guid: 3601c0887ab9d254b89a9bfcc02169bc, type: 3}
  - {fileID: 21300000, guid: 00de647c67e5a81498d74ad6bb01b4f8, type: 3}
  - {fileID: 21300000, guid: a57bb08e4df97bf41a38fdc5f216bc69, type: 3}
  - {fileID: 21300000, guid: e94b543f2a5d9284287bcf0480597a12, type: 3}
  - {fileID: 21300000, guid: 59f7769fbac3f7546b04ce2b99826159, type: 3}
  m_PackedSpriteNamesToIndex:
  - DetectorColor
  - VentanaIO
  - BombilloApagado
  - BotonIO
  - Flecha
  - Bombillo
  m_Tag: AtlasVentanaIO
  m_IsVariant: 0
